<?xml version="1.0" standalone="no"?> <!DOCTYPE svg PUBLIC "-//W3C//DTD SVG 1.0//EN" "http://www.w3.org/TR/2001/REC-SVG-20010904/DTD/svg10.dtd" > <svg xmlns="http://www.w3.org/2000/svg" width="100%" height="100%">
<defs >
<font id="frutigerbold" horiz-adv-x="541" ><font-face
    font-family="Frutiger LT W01 65 Bold"
    units-per-em="1000"
    panose-1="2 11 8 3 3 5 4 2 2 4"
    ascent="933"
    descent="-250"
    alphabetic="0" />
<missing-glyph horiz-adv-x="0" />
<glyph unicode=" " glyph-name="null" horiz-adv-x="278" />
<glyph unicode="!" glyph-name="null" horiz-adv-x="389" d="M118 698H272L251 205H137L118 698ZM125 140H265V0H125V140Z" />
<glyph unicode="&quot;" glyph-name="null" horiz-adv-x="481" d="M271 698H393V448H271V698ZM88 698H210V448H88V698Z" />
<glyph unicode="#" glyph-name="null" horiz-adv-x="556" d="M494 205H402L373 0H285L314 205H212L182 0H94L123 205H33V285H134L151 413H63V493H163L191 698H280L252 493H354L382 698H470L442 493H523V413H430L413 285H494V205ZM240 413L223 285H325L342 413H240Z" />
<glyph unicode="$" glyph-name="null" horiz-adv-x="556" d="M259 590Q236 580 220 559Q204 539 204 503Q204 479 220 463Q234 447 259 434V590ZM306 112Q332 123 348 142Q364 161 364 188Q364 216 348 235Q332 253 306 265V112ZM306 782V710Q394 710 469 685L456
570Q389 599 314 600Q310 600 306 599V414Q340 402 376 387Q411 371 441 348Q472 325 491 289Q510 253 510 199Q509 102 452 52Q395 2 306 -8V-90H259V-11Q253 -12 248 -12Q194 -12 157 -4Q119 3 69 15L82 141Q156 99 240 98Q249 98 259 100V287Q225 300 190 316Q155
332 125 354Q96 376 77 412Q58 446 58 497Q59 600 119 650Q177 700 259 708V782H306Z" />
<glyph unicode="%" glyph-name="null" horiz-adv-x="1000" d="M729 68Q769 69 781 105Q791 138 791 172Q791 207 781 241Q769 275 729 276Q691 275 678 241Q664 207 665 172Q664 138 678 105Q691 69 729 68ZM677 720H759L327 -22H245L677 720ZM274 342Q108 344
106 526Q108 707 274 710Q438 707 440 526Q438 344 274 342ZM274 422Q314 423 326 459Q336 492 336 526Q336 561 326 595Q314 629 274 630Q236 629 223 595Q209 561 210 526Q209 492 223 459Q236 423 274 422ZM729 -12Q563 -9 561 172Q563 353 729 356Q893 353
895 172Q893 -9 729 -12Z" />
<glyph unicode="&amp;" glyph-name="null" horiz-adv-x="722" d="M279 307Q244 290 220 263Q194 237 194 195Q195 149 230 121Q263 92 312 92Q348 92 380 102Q411 112 434 134L279 307V307ZM310 439Q340 453 369 481Q400 509 401 540Q400 577 378 595Q356 612
324 612Q293 612 269 595Q244 577 244 538Q245 509 268 485Q289 460 310 439ZM516 227Q541 258 551 298Q559 338 560 379H682Q677 243 593 140L718 0H546L499 62Q462 25 412 7Q362 -12 309 -12Q203 -12 133 41Q61 93 60 191Q59 254 92 302Q126 349 207 383Q166
420 139 457Q110 493 110 551Q112 631 180 671Q244 710 322 710Q399 710 460 674Q521 637 523 552Q522 482 485 441Q446 399 388 367L516 227V227Z" />
<glyph unicode="&apos;" glyph-name="null" horiz-adv-x="278" d="M78 698H200V448H78V698Z" />
<glyph unicode="(" glyph-name="null" horiz-adv-x="333" d="M326 756Q261 656 222 551Q181 445 181 308Q185 58 326 -140H199Q41 58 39 308Q39 445 82 551Q123 656 199 756H326Z" />
<glyph unicode=")" glyph-name="null" horiz-adv-x="333" d="M7 -140Q147 58 152 308Q151 445 112 551Q72 656 7 756H133Q209 656 251 551Q294 445 294 308Q291 58 133 -140H7Z" />
<glyph unicode="*" glyph-name="null" horiz-adv-x="556" d="M345 475L441 368L349 302L278 426L202 302L111 368L209 475L72 506L105 610L238 553L222 698H336L319 554L452 610L484 506L345 475Z" />
<glyph unicode="+" glyph-name="null" horiz-adv-x="600" d="M248 506H352V305H554V201H352V0H248V201H46V305H248V506Z" />
<glyph unicode="," glyph-name="null" horiz-adv-x="278" d="M87 140H232L141 -110H23L87 140Z" />
<glyph unicode="-" glyph-name="null" horiz-adv-x="333" d="M35 214V324H298V214H35Z" />
<glyph unicode="." glyph-name="null" horiz-adv-x="278" d="M69 140H209V0H69V140Z" />
<glyph unicode="/" glyph-name="null" horiz-adv-x="389" d="M265 710H369L125 -12H21L265 710Z" />
<glyph unicode="0" glyph-name="null" horiz-adv-x="556" d="M277 92Q317 92 339 120Q360 147 369 187Q379 228 381 271Q381 314 381 347Q381 383 380 427Q378 470 368 511Q359 553 338 579Q316 605 277 606Q240 605 219 579Q198 553 188 511Q180 470 177 427Q175
383 175 347Q175 314 177 271Q180 228 188 187Q198 147 219 120Q240 92 277 92ZM277 -12Q198 -11 150 25Q101 59 76 114Q51 169 43 231Q35 292 35 347Q35 414 47 479Q59 543 86 595Q114 647 161 679Q207 710 277 710Q353 709 402 677Q450 643 476 590Q502 537 512
473Q521 409 521 347Q521 286 512 224Q502 162 475 108Q449 55 401 22Q353 -11 277 -12Z" />
<glyph unicode="1" glyph-name="null" horiz-adv-x="556" d="M283 698H407V0H267V539L149 443L79 534L283 698Z" />
<glyph unicode="2" glyph-name="null" horiz-adv-x="556" d="M41 0V117Q68 142 117 188Q166 232 217 288Q270 345 306 401Q342 457 343 506Q342 554 308 578Q275 600 229 600Q185 600 144 584Q103 567 68 544L57 660Q155 709 264 710Q478 710 483 506Q482 451
459 398Q435 345 395 295Q311 194 220 110H505V0H41Z" />
<glyph unicode="3" glyph-name="null" horiz-adv-x="556" d="M53 130Q125 99 208 98Q231 98 257 104Q281 110 304 121Q327 133 341 153Q355 171 355 197Q354 258 312 283Q270 306 201 306H133V416H197Q269 416 310 440Q351 463 352 508Q352 535 343 553Q333 571
316 581Q282 600 232 600Q149 600 75 563L67 675Q153 709 262 710Q296 710 335 704Q375 697 410 677Q446 658 469 623Q491 588 492 531Q491 461 455 423Q418 384 362 364V362Q429 352 462 307Q495 262 495 196Q494 135 471 94Q446 54 406 30Q386 20 365 12Q343
4 320 -2Q273 -12 228 -12Q130 -12 45 11L53 130V130Z" />
<glyph unicode="4" glyph-name="null" horiz-adv-x="556" d="M317 249V552H315L142 249H317ZM16 258L277 698H451V249H540V145H451V0H317V145H16V258Z" />
<glyph unicode="5" glyph-name="null" horiz-adv-x="556" d="M490 594H221L218 445Q242 451 282 452Q320 452 360 443Q398 433 432 407Q466 382 487 338Q507 294 507 225Q507 125 439 58Q370 -10 235 -12Q148 -11 72 8L75 133Q101 122 137 111Q173 98 218 98Q276
98 320 127Q366 155 367 221Q366 288 317 316Q270 342 207 342Q175 342 145 338Q114 334 82 323L89 698H490V594Z" />
<glyph unicode="6" glyph-name="null" horiz-adv-x="556" d="M460 572Q433 584 403 592Q374 600 338 600Q250 598 212 531Q174 466 172 384L174 382Q222 452 309 452Q511 447 513 239Q513 125 457 57Q399 -11 281 -12Q139 -9 90 90Q65 136 55 194Q44 251 44 313Q42
462 104 583Q165 706 331 710Q407 710 478 685L460 572V572ZM278 348Q228 347 206 309Q184 270 184 216Q184 165 207 130Q231 93 281 92Q330 93 352 132Q373 169 373 217Q373 270 351 309Q329 347 278 348Z" />
<glyph unicode="7" glyph-name="null" horiz-adv-x="556" d="M50 698H500V582L252 0H100L359 588H50V698Z" />
<glyph unicode="8" glyph-name="null" horiz-adv-x="556" d="M163 364Q110 388 79 430Q47 471 47 526Q48 620 111 666Q173 710 269 710Q365 710 433 671Q501 630 503 542Q503 494 475 447Q445 401 387 375V374Q522 310 521 191Q520 86 453 37Q387 -12 281 -12Q177
-12 108 36Q36 83 35 189Q35 303 163 362V364ZM181 522Q181 500 192 484Q203 467 219 455Q236 443 255 434Q273 424 291 417Q322 429 346 457Q368 485 369 518Q369 558 347 582Q324 605 283 606Q244 606 214 585Q182 564 181 522ZM175 191Q176 147 208 121Q238
92 281 92Q324 92 352 117Q380 141 381 185Q380 237 345 265Q310 293 264 306Q226 289 201 262Q175 236 175 191Z" />
<glyph unicode="9" glyph-name="null" horiz-adv-x="556" d="M97 126Q151 99 219 98Q309 100 347 167Q383 232 385 314L383 316Q335 245 248 246Q45 251 44 459Q44 575 101 642Q158 709 276 710Q349 709 396 683Q443 656 468 610Q515 513 513 385Q514 237 455
116Q392 -8 226 -12Q150 -12 79 13L97 126V126ZM279 350Q330 351 352 390Q373 428 373 482Q373 533 351 569Q328 605 276 606Q228 605 206 568Q184 530 184 481Q184 429 207 391Q230 351 279 350Z" />
<glyph unicode=":" glyph-name="null" horiz-adv-x="278" d="M69 515H209V375H69V515ZM69 140H209V0H69V140Z" />
<glyph unicode=";" glyph-name="null" horiz-adv-x="278" d="M87 140H232L141 -110H23L87 140ZM69 515H209V375H69V515Z" />
<glyph unicode="&lt;" glyph-name="null" horiz-adv-x="600" d="M46 210V296L554 514V412L181 253L554 94V-8L46 210Z" />
<glyph unicode="=" glyph-name="null" horiz-adv-x="600" d="M554 310H46V414H554V310ZM554 92H46V196H554V92Z" />
<glyph unicode="&gt;" glyph-name="null" horiz-adv-x="600" d="M419 253L46 412V514L554 296V210L46 -8V94L419 253Z" />
<glyph unicode="?" glyph-name="null" horiz-adv-x="500" d="M50 677Q147 709 248 710Q338 710 406 669Q474 626 476 531Q475 480 449 440Q422 400 387 365Q353 330 329 292Q303 253 306 204H183Q184 275 207 319Q228 363 256 392Q286 423 308 450Q329 477 330
515Q329 564 295 586Q260 606 215 606Q134 604 61 566L50 677ZM175 140H315V0H175V140Z" />
<glyph unicode="@" glyph-name="null" horiz-adv-x="800" d="M415 446Q365 445 335 405Q303 365 303 318Q303 283 323 260Q343 236 378 236Q427 237 458 278Q489 318 489 366Q489 403 470 424Q450 446 415 446ZM716 143Q599 -14 400 -12Q264 -12 154 79Q40 169
37 349Q38 503 147 605Q253 708 424 710Q552 710 655 641Q760 570 763 416Q762 340 734 288Q705 234 662 201Q621 169 579 154Q538 138 511 138Q489 138 475 152Q459 164 457 190H455Q437 168 411 154Q386 138 354 138Q290 138 246 185Q200 230 199 303Q200 405
260 474Q318 542 405 544Q478 544 521 480L533 528H617L562 285Q555 267 555 251Q554 236 570 236Q610 236 646 279Q682 321 683 413Q683 475 660 515Q637 555 598 577Q580 589 559 598Q538 606 515 610Q470 618 424 618Q297 616 220 538Q142 459 141 349Q142 231
215 157Q286 81 400 80Q461 79 522 92Q583 105 631 143H716Z" />
<glyph unicode="A" glyph-name="null" horiz-adv-x="722" d="M358 558H356L255 270H459L358 558ZM281 698H439L713 0H558L498 160H215L154 0H9L281 698Z" />
<glyph unicode="B" glyph-name="null" horiz-adv-x="611" d="M221 110H287Q313 110 338 114Q363 119 384 129Q430 149 431 207Q431 241 419 263Q407 284 386 294Q365 306 340 310Q314 312 287 312H221V110ZM221 416H278Q326 415 367 432Q387 441 399 458Q410 474
410 501Q410 532 399 550Q387 568 367 576Q347 585 324 587Q300 588 275 588H221V416ZM81 698H325Q360 698 400 693Q438 686 472 667Q507 648 529 613Q549 577 550 519Q549 457 512 416Q475 375 411 363V361Q484 354 527 311Q570 268 571 202Q571 137 546 97Q521
57 482 36Q444 15 402 8Q359 0 325 0H81V698Z" />
<glyph unicode="C" glyph-name="null" horiz-adv-x="611" d="M589 10Q511 -11 430 -12Q258 -12 155 75Q48 160 47 337Q54 706 430 710Q505 710 588 681L578 563Q539 585 502 594Q465 600 427 600Q318 599 257 528Q193 457 193 347Q193 238 256 170Q318 99 430
98Q473 98 516 107Q558 115 583 127L589 10Z" />
<glyph unicode="D" glyph-name="null" horiz-adv-x="722" d="M81 698H272Q438 700 554 628Q611 589 643 522Q675 454 675 349Q675 246 643 179Q611 111 554 71Q498 32 426 16Q354 0 272 0H81V698ZM221 110H299Q391 110 459 173Q527 235 529 349Q527 464 459 526Q391
588 299 588H221V110Z" />
<glyph unicode="E" glyph-name="null" horiz-adv-x="556" d="M81 698H493V588H221V416H470V306H221V110H495V0H81V698Z" />
<glyph unicode="F" glyph-name="null" horiz-adv-x="500" d="M81 698H469V588H221V416H457V306H221V0H81V698Z" />
<glyph unicode="G" glyph-name="null" horiz-adv-x="722" d="M626 563Q538 600 446 600Q324 599 259 528Q193 457 193 347Q193 238 256 170Q318 99 430 98Q487 98 522 108V290H374V400H656V24Q544 -10 430 -12Q258 -12 155 75Q48 160 47 337Q54 706 430 710Q548
709 635 681L626 563V563Z" />
<glyph unicode="H" glyph-name="null" horiz-adv-x="722" d="M81 698H221V416H501V698H641V0H501V306H221V0H81V698Z" />
<glyph unicode="I" glyph-name="null" horiz-adv-x="278" d="M69 698H209V0H69V698Z" />
<glyph unicode="J" glyph-name="null" horiz-adv-x="389" d="M22 122Q49 110 89 110Q124 110 143 123Q162 136 169 154Q181 193 180 233V698H320V166Q320 139 311 108Q301 78 279 50Q257 23 220 6Q183 -11 129 -12Q76 -12 22 1V122Z" />
<glyph unicode="K" glyph-name="null" horiz-adv-x="667" d="M81 698H221V398L473 698H645L358 369L657 0H474L223 324H221V0H81V698Z" />
<glyph unicode="L" glyph-name="null" horiz-adv-x="500" d="M81 698H221V110H492V0H81V698Z" />
<glyph unicode="M" glyph-name="null" horiz-adv-x="944" d="M81 698H305L471 169H473L639 698H863V0H729V576H727L539 0H405L217 576L215 574V0H81V698Z" />
<glyph unicode="N" glyph-name="null" horiz-adv-x="722" d="M74 698H246L512 176H514V698H648V0H477L210 522H208V0H74V698Z" />
<glyph unicode="O" glyph-name="null" horiz-adv-x="778" d="M47 351Q47 514 135 611Q222 709 389 710Q555 708 643 610Q731 513 731 351Q730 190 644 91Q556 -10 389 -12Q221 -10 135 90Q47 188 47 351ZM193 351Q192 253 238 178Q284 100 389 98Q443 98 481 120Q519
142 541 178Q585 253 585 351Q585 448 540 522Q493 598 389 600Q286 598 240 522Q193 448 193 351Z" />
<glyph unicode="P" glyph-name="null" horiz-adv-x="556" d="M209 375H258Q313 374 352 397Q390 420 391 479Q391 510 381 531Q370 552 352 564Q314 588 258 588H209V375ZM69 698H246Q364 699 449 656Q535 611 537 487Q536 367 460 316Q384 264 268 265H209V0H69V698Z" />
<glyph unicode="Q" glyph-name="null" horiz-adv-x="778" d="M544 -132L422 -10Q407 -12 389 -12Q221 -10 135 90Q47 188 47 351Q47 514 135 611Q222 709 389 710Q555 708 643 610Q731 513 731 351Q730 117 555 25L713 -132H544ZM193 351Q192 253 238 178Q284
100 389 98Q443 98 481 120Q519 142 541 178Q585 253 585 351Q585 448 540 522Q493 598 389 600Q286 598 240 522Q193 448 193 351Z" />
<glyph unicode="R" glyph-name="null" horiz-adv-x="611" d="M209 400H255Q282 400 309 404Q335 407 356 417Q377 427 391 446Q403 466 403 497Q403 529 391 548Q377 566 356 575Q335 584 309 587Q282 588 255 588H209V400ZM69 698H220Q278 698 336 697Q394 694
442 677Q491 661 520 621Q548 582 549 509Q549 447 511 402Q473 357 405 347V345Q433 342 451 320Q469 298 479 273L591 0H435L351 218Q338 257 318 274Q297 290 254 290H209V0H69V698Z" />
<glyph unicode="S" glyph-name="null" horiz-adv-x="556" d="M456 570Q389 599 314 600Q296 600 278 596Q259 592 242 581Q226 571 215 551Q204 532 204 503Q204 481 218 466Q232 451 253 439Q276 427 303 417Q329 406 358 394Q387 383 414 368Q442 352 463 329Q484
307 498 276Q510 244 510 199Q508 86 433 37Q358 -12 248 -12Q194 -12 157 -4Q119 3 69 15L82 141Q156 99 240 98Q283 98 323 120Q363 142 364 188Q364 213 352 231Q338 249 317 261Q271 285 212 307Q183 319 157 335Q130 350 107 371Q86 393 72 424Q58 455 58
497Q60 613 135 663Q207 710 302 710Q392 710 469 685L456 570V570Z" />
<glyph unicode="T" glyph-name="null" horiz-adv-x="556" d="M208 588H8V698H548V588H348V0H208V588Z" />
<glyph unicode="U" glyph-name="null" horiz-adv-x="722" d="M76 698H216V295Q215 205 249 153Q283 98 361 98Q441 98 474 153Q506 205 506 295V698H646V252Q642 -16 361 -12Q80 -16 76 252V698Z" />
<glyph unicode="V" glyph-name="null" horiz-adv-x="667" d="M10 698H160L339 150H341L518 698H657L422 0H250L10 698Z" />
<glyph unicode="W" glyph-name="null" horiz-adv-x="1000" d="M10 698H157L287 140H289L408 698H598L721 140H723L854 698H990L808 0H628L502 558H500L376 0H195L10 698Z" />
<glyph unicode="X" glyph-name="null" horiz-adv-x="667" d="M239 363L31 698H193L339 449L488 698H638L428 363L657 0H492L331 272L168 0H10L239 363Z" />
<glyph unicode="Y" glyph-name="null" horiz-adv-x="667" d="M266 276L11 698H175L340 405L508 698H656L406 276V0H266V276Z" />
<glyph unicode="Z" glyph-name="null" horiz-adv-x="556" d="M36 114L364 588H49V698H513V584L182 110H520V0H36V114Z" />
<glyph unicode="[" glyph-name="null" horiz-adv-x="333" d="M72 756H296V658H200V-42H296V-140H72V756Z" />
<glyph unicode="\" glyph-name="null" horiz-adv-x="389" d="M20 710H124L368 -12H264L20 710Z" />
<glyph unicode="]" glyph-name="null" horiz-adv-x="333" d="M261 756V-140H37V-42H133V658H37V756H261Z" />
<glyph unicode="^" glyph-name="null" horiz-adv-x="600" d="M66 313L253 698H347L534 313H430L300 593L170 313H66Z" />
<glyph unicode="_" glyph-name="null" horiz-adv-x="500" d="M500 -75V-125H0V-75H500Z" />
<glyph unicode="`" glyph-name="null" horiz-adv-x="278" d="M249 585H166L29 731H166L249 585Z" />
<glyph unicode="a" glyph-name="null" horiz-adv-x="556" d="M92 488Q178 526 271 527Q496 530 493 310V244Q493 169 495 115Q497 58 501 0H383Q377 47 377 77H375Q351 35 308 12Q264 -12 216 -12Q146 -11 93 28Q37 67 36 141Q36 199 62 235Q86 271 124 288Q164
307 209 313Q255 318 297 318H371Q371 380 343 405Q315 429 255 429Q167 428 96 373L92 488ZM164 149Q164 117 189 102Q212 86 249 86Q311 87 343 132Q372 177 371 238H313Q302 238 290 238Q278 238 266 236Q240 233 217 224Q194 215 180 197Q164 179 164 149Z"
/>
<glyph unicode="b" glyph-name="null" horiz-adv-x="611" d="M204 259Q203 201 231 149Q245 125 267 109Q289 92 322 92Q355 92 378 109Q400 125 412 149Q425 175 431 204Q435 233 435 259Q435 315 413 368Q401 393 379 408Q357 423 324 423Q260 421 232 368Q204
317 204 259ZM69 750H203V449H205Q257 526 359 527Q476 525 527 447Q576 369 575 259Q576 150 527 71Q476 -10 359 -12Q316 -12 274 5Q232 23 201 63H199V0H69V750Z" />
<glyph unicode="c" glyph-name="null" horiz-adv-x="444" d="M403 404Q386 413 365 418Q343 423 312 423Q250 422 214 379Q176 335 176 260Q176 188 211 141Q245 93 315 92Q344 92 373 101Q401 108 418 116L424 5Q396 -4 364 -7Q332 -12 290 -12Q164 -11 101 66Q36
141 36 260Q36 375 101 450Q165 526 285 527Q363 527 415 510L403 404Z" />
<glyph unicode="d" glyph-name="null" horiz-adv-x="611" d="M176 259Q175 203 200 149Q213 125 235 109Q256 92 289 92Q324 92 346 109Q369 125 382 149Q396 174 402 203Q407 232 407 259Q407 317 380 368Q365 393 343 408Q320 423 287 423Q224 421 199 368Q187
344 182 315Q176 286 176 259ZM412 58H410Q348 -13 252 -12Q135 -10 85 71Q35 150 36 259Q35 369 85 447Q135 525 252 527Q349 527 406 455H408V750H542V0H412V58Z" />
<glyph unicode="e" glyph-name="null" horiz-adv-x="556" d="M392 308Q390 359 365 393Q339 428 283 429Q228 428 198 395Q168 361 164 308H392ZM482 29Q411 -12 305 -12Q39 -8 36 255Q36 370 96 448Q156 525 275 527Q416 526 470 440Q521 354 520 216H164Q169
154 209 121Q249 86 311 86Q360 86 403 102Q445 116 482 138V29Z" />
<glyph unicode="f" glyph-name="null" horiz-adv-x="389" d="M118 417H19V515H118V587Q118 666 161 714Q202 761 282 762Q337 761 380 751L369 640Q360 647 347 653Q334 658 311 658Q278 657 265 634Q252 610 252 579V515H369V417H252V0H118V417Z" />
<glyph unicode="g" glyph-name="null" horiz-adv-x="611" d="M290 104Q353 105 381 152Q408 197 408 263Q408 331 382 376Q354 422 296 423Q229 421 203 372Q175 323 176 260Q176 204 205 156Q220 133 241 119Q262 104 290 104ZM542 515V50Q542 25 540 -1Q537
-27 531 -51Q518 -100 487 -138Q458 -176 404 -198Q351 -221 270 -222Q189 -223 92 -187L103 -73Q136 -90 178 -103Q220 -117 253 -118Q308 -117 341 -99Q372 -80 387 -51Q402 -21 406 14Q408 49 408 82H406Q387 48 346 25Q304 0 246 0Q133 2 85 79Q35 153 36 260Q35
358 88 441Q140 524 254 527Q356 528 412 445H414V515H542Z" />
<glyph unicode="h" glyph-name="null" horiz-adv-x="611" d="M69 750H203V445H205Q259 525 367 527Q458 526 501 470Q542 414 542 325V0H408V275Q408 300 407 326Q406 352 397 373Q390 396 372 410Q353 423 321 423Q285 423 263 406Q241 389 227 363Q214 337 209
308Q203 278 203 252V0H69V750Z" />
<glyph unicode="i" glyph-name="null" horiz-adv-x="278" d="M72 515H206V0H72V515ZM72 737H206V609H72V737Z" />
<glyph unicode="j" glyph-name="null" horiz-adv-x="278" d="M-10 -118Q43 -116 59 -97Q73 -78 72 -20V515H206V-38Q206 -65 201 -96Q195 -128 179 -157Q163 -184 133 -203Q102 -221 51 -222Q14 -222 -15 -214L-10 -118ZM72 737H206V609H72V737Z" />
<glyph unicode="k" glyph-name="null" horiz-adv-x="556" d="M72 750H206V309H208L368 515H526L334 285L550 0H380L208 250H206V0H72V750Z" />
<glyph unicode="l" glyph-name="null" horiz-adv-x="278" d="M72 750H206V0H72V750Z" />
<glyph unicode="m" glyph-name="null" horiz-adv-x="889" d="M67 515H192V443H194Q227 490 268 509Q309 527 347 527Q455 528 499 436Q524 483 569 505Q612 527 660 527Q754 526 790 470Q824 414 823 325V0H689V307Q690 346 680 383Q673 401 658 412Q642 423 612
423Q579 423 560 406Q539 389 529 362Q519 336 516 307Q512 276 512 250V0H378V307Q379 346 369 383Q362 401 347 412Q331 423 301 423Q268 423 249 406Q228 389 218 362Q208 336 205 307Q201 276 201 250V0H67V515Z" />
<glyph unicode="n" glyph-name="null" horiz-adv-x="611" d="M69 515H196V445H198Q262 528 367 527Q458 526 501 470Q542 414 542 325V0H408V275Q408 300 407 326Q406 352 397 373Q390 396 372 410Q353 423 321 423Q285 423 263 406Q241 389 227 363Q214 337 209
308Q203 278 203 252V0H69V515Z" />
<glyph unicode="o" glyph-name="null" horiz-adv-x="611" d="M36 254Q37 383 114 455Q189 526 305 527Q423 526 498 455Q574 383 575 254Q575 141 505 66Q435 -10 305 -12Q177 -10 107 66Q36 141 36 254ZM176 270Q176 255 178 240Q180 223 183 208Q189 176 203
150Q218 124 243 109Q267 92 305 92Q344 92 370 108Q395 123 410 149Q425 175 430 207Q435 238 435 270Q435 332 404 377Q371 422 305 423Q241 422 209 376Q176 331 176 270Z" />
<glyph unicode="p" glyph-name="null" horiz-adv-x="611" d="M69 515H197V442H199Q242 524 359 527Q476 525 527 447Q576 369 575 259Q576 150 527 71Q476 -10 356 -12Q314 -12 278 3Q241 18 205 59H203V-210H69V515ZM324 423Q260 421 232 368Q204 317 204 259Q203
201 231 149Q245 125 267 109Q289 92 322 92Q355 92 378 109Q400 125 412 149Q425 175 431 204Q435 233 435 259Q435 315 413 368Q401 393 379 408Q357 423 324 423Z" />
<glyph unicode="q" glyph-name="null" horiz-adv-x="611" d="M408 59H406Q372 18 335 3Q298 -12 255 -12Q136 -10 86 71Q35 150 36 259Q35 369 86 447Q136 525 255 527Q367 525 412 442H414V515H542V-210H408V59ZM287 423Q224 421 199 368Q187 344 182 315Q176
286 176 259Q175 203 200 149Q213 125 235 109Q256 92 289 92Q324 92 346 109Q369 125 382 149Q396 174 402 203Q407 232 407 259Q407 317 380 368Q365 393 343 408Q320 423 287 423Z" />
<glyph unicode="r" glyph-name="null" horiz-adv-x="389" d="M72 515H191V398H193Q199 438 237 481Q274 525 334 527Q354 527 375 523V388Q354 399 315 399Q275 399 253 377Q231 356 220 322Q210 290 208 254Q206 219 206 189V0H72V515Z" />
<glyph unicode="s" glyph-name="null" horiz-adv-x="444" d="M375 407Q346 418 319 424Q292 429 255 429Q227 429 203 418Q177 405 176 372Q177 343 213 331Q230 324 251 318Q272 312 293 304Q316 297 337 286Q357 274 373 258Q390 241 400 217Q409 192 409 156Q407
67 343 27Q279 -12 193 -12Q116 -11 41 10L49 120Q112 86 181 86Q209 86 238 100Q268 113 269 149Q269 169 260 182Q250 194 233 201Q198 215 153 227Q132 234 111 244Q90 254 73 270Q56 286 47 310Q36 333 36 367Q37 451 99 489Q157 527 238 527Q285 527 320 522Q354
516 384 508L375 407Z" />
<glyph unicode="t" glyph-name="null" horiz-adv-x="389" d="M113 417H14V515H113V618L247 661V515H366V417H247V177Q246 143 260 119Q273 93 310 92Q348 92 371 106L375 0Q335 -12 276 -12Q114 -8 113 155V417Z" />
<glyph unicode="u" glyph-name="null" horiz-adv-x="611" d="M542 0H415V70H413Q350 -10 244 -12Q153 -11 112 46Q69 102 69 190V515H203V240Q203 229 205 217Q205 205 206 192Q208 166 215 143Q224 121 241 107Q259 92 290 92Q327 92 351 111Q374 128 386 154Q400
180 404 209Q408 238 408 263V515H542V0Z" />
<glyph unicode="v" glyph-name="null" horiz-adv-x="556" d="M12 515H156L284 140H286L410 515H544L354 0H203L12 515Z" />
<glyph unicode="w" glyph-name="null" horiz-adv-x="889" d="M11 515H153L267 134H269L373 515H529L641 134H643L750 515H878L720 0H562L450 393H448L338 0H185L11 515Z" />
<glyph unicode="x" glyph-name="null" horiz-adv-x="556" d="M27 515H185L286 347L385 515H527L373 270L547 0H387L272 192L156 0H9L186 270L27 515Z" />
<glyph unicode="y" glyph-name="null" horiz-adv-x="556" d="M283 139H285L409 515H545L352 4Q337 -38 321 -78Q305 -119 282 -151Q260 -183 226 -202Q190 -222 138 -222Q90 -222 43 -208L52 -109Q75 -118 121 -118Q162 -117 185 -92Q208 -67 208 -26L11 515H159L283
139Z" />
<glyph unicode="z" glyph-name="null" horiz-adv-x="500" d="M47 515H455V405L199 104H464V0H36V109L297 411H47V515Z" />
<glyph unicode="{" glyph-name="null" horiz-adv-x="333" d="M18 351Q48 350 74 372Q86 383 94 401Q100 419 100 444V621Q101 691 147 724Q192 756 248 756H323V676H278Q246 676 237 657Q227 638 228 603V430Q228 396 217 373Q206 349 189 336Q152 311 116 309V307Q133
306 153 301Q172 295 189 282Q206 269 217 245Q228 220 228 179V13Q227 -22 237 -40Q246 -60 278 -60H323V-140H248Q189 -140 146 -106Q101 -73 100 -5V165Q99 222 74 245Q48 265 18 265V351Z" />
<glyph unicode="|" glyph-name="null" horiz-adv-x="222" d="M163 750V-250H59V750H163Z" />
<glyph unicode="}" glyph-name="null" horiz-adv-x="333" d="M315 265Q287 265 261 245Q249 233 241 214Q233 195 233 165V-5Q232 -74 188 -107Q144 -140 85 -140H10V-60H55Q87 -60 97 -40Q105 -22 105 13V179Q105 220 118 245Q129 269 146 282Q182 307 217 307V309Q202
311 183 317Q163 323 146 336Q129 349 118 373Q105 396 105 430V603Q105 638 97 657Q87 676 55 676H10V756H85Q144 756 188 724Q232 691 233 621V444Q234 392 261 372Q287 350 315 351V265Z" />
<glyph unicode="~" glyph-name="null" horiz-adv-x="600" d="M69 252Q85 285 115 312Q144 339 190 340Q228 340 256 330Q284 320 307 306Q334 293 360 282Q385 270 412 270Q439 271 459 294Q479 315 495 342L531 254Q513 221 484 195Q455 167 416 166Q382 166
354 178Q326 187 300 201Q275 215 250 226Q224 236 191 236Q157 235 137 214Q117 192 105 164L69 252Z" />
<hkern g1="null" g2="null" k="80" />
<hkern g1="null" g2="null" k="50" />
<hkern g1="null" g2="null" k="37" />
<hkern g1="null" g2="null" k="98" />
<hkern g1="null" g2="null" k="30" />
<hkern g1="null" g2="null" k="18" />
<hkern g1="null" g2="null" k="18" />
<hkern g1="null" g2="null" k="98" />
<hkern g1="null" g2="null" k="18" />
<hkern g1="null" g2="null" k="18" />
<hkern g1="null" g2="null" k="98" />
<hkern g1="null" g2="null" k="74" />
<hkern g1="null" g2="null" k="129" />
<hkern g1="null" g2="null" k="129" />
<hkern g1="null" g2="null" k="31" />
<hkern g1="null" g2="null" k="31" />
<hkern g1="null" g2="null" k="31" />
<hkern g1="null" g2="null" k="31" />
<hkern g1="null" g2="null" k="31" />
<hkern g1="null" g2="null" k="31" />
<hkern g1="null" g2="null" k="31" />
<hkern g1="null" g2="null" k="92" />
<hkern g1="null" g2="null" k="92" />
<hkern g1="null" g2="null" k="55" />
<hkern g1="null" g2="null" k="111" />
<hkern g1="null" g2="null" k="37" />
<hkern g1="null" g2="null" k="111" />
<hkern g1="null" g2="null" k="37" />
<hkern g1="null" g2="null" k="37" />
<hkern g1="null" g2="null" k="111" />
<hkern g1="null" g2="null" k="74" />
<hkern g1="null" g2="null" k="169" />
<hkern g1="null" g2="null" k="169" />
<hkern g1="null" g2="null" k="74" />
<hkern g1="null" g2="null" k="74" />
<hkern g1="null" g2="null" k="74" />
<hkern g1="null" g2="null" k="74" />
<hkern g1="null" g2="null" k="74" />
<hkern g1="null" g2="null" k="74" />
<hkern g1="null" g2="null" k="74" />
<hkern g1="null" g2="null" k="18" />
<hkern g1="null" g2="null" k="18" />
<hkern g1="null" g2="null" k="18" />
<hkern g1="null" g2="null" k="37" />
<hkern g1="null" g2="null" k="37" />
<hkern g1="null" g2="null" k="37" />
<hkern g1="null" g2="null" k="111" />
<hkern g1="null" g2="null" k="117" />
<hkern g1="null" g2="null" k="111" />
<hkern g1="null" g2="null" k="71" />
<hkern g1="null" g2="null" k="83" />
<hkern g1="null" g2="null" k="80" />
<hkern g1="null" g2="null" k="111" />
<hkern g1="null" g2="null" k="111" />
<hkern g1="null" g2="null" k="111" />
<hkern g1="null" g2="null" k="111" />
<hkern g1="null" g2="null" k="92" />
<hkern g1="null" g2="null" k="111" />
<hkern g1="null" g2="null" k="92" />
<hkern g1="null" g2="null" k="111" />
<hkern g1="null" g2="null" k="111" />
<hkern g1="null" g2="null" k="80" />
<hkern g1="null" g2="null" k="80" />
<hkern g1="null" g2="null" k="80" />
<hkern g1="null" g2="null" k="80" />
<hkern g1="null" g2="null" k="80" />
<hkern g1="null" g2="null" k="80" />
<hkern g1="null" g2="null" k="111" />
<hkern g1="null" g2="null" k="111" />
<hkern g1="null" g2="null" k="111" />
<hkern g1="null" g2="null" k="111" />
<hkern g1="null" g2="null" k="111" />
<hkern g1="null" g2="null" k="111" />
<hkern g1="null" g2="null" k="111" />
<hkern g1="null" g2="null" k="111" />
<hkern g1="null" g2="null" k="111" />
<hkern g1="null" g2="null" k="111" />
<hkern g1="null" g2="null" k="111" />
<hkern g1="null" g2="null" k="111" />
<hkern g1="null" g2="null" k="111" />
<hkern g1="null" g2="null" k="111" />
<hkern g1="null" g2="null" k="111" />
<hkern g1="null" g2="null" k="111" />
<hkern g1="null" g2="null" k="92" />
<hkern g1="null" g2="null" k="92" />
<hkern g1="null" g2="null" k="92" />
<hkern g1="null" g2="null" k="92" />
<hkern g1="null" g2="null" k="111" />
<hkern g1="null" g2="null" k="111" />
<hkern g1="null" g2="null" k="111" />
<hkern g1="null" g2="null" k="129" />
<hkern g1="null" g2="null" k="55" />
<hkern g1="null" g2="null" k="129" />
<hkern g1="null" g2="null" k="34" />
<hkern g1="null" g2="null" k="46" />
<hkern g1="null" g2="null" k="74" />
<hkern g1="null" g2="null" k="55" />
<hkern g1="null" g2="null" k="55" />
<hkern g1="null" g2="null" k="-10" />
<hkern g1="null" g2="null" k="55" />
<hkern g1="null" g2="null" k="37" />
<hkern g1="null" g2="null" k="37" />
<hkern g1="null" g2="null" k="18" />
<hkern g1="null" g2="null" k="74" />
<hkern g1="null" g2="null" k="74" />
<hkern g1="null" g2="null" k="74" />
<hkern g1="null" g2="null" k="74" />
<hkern g1="null" g2="null" k="74" />
<hkern g1="null" g2="null" k="74" />
<hkern g1="null" g2="null" k="55" />
<hkern g1="null" g2="null" k="55" />
<hkern g1="null" g2="null" k="55" />
<hkern g1="null" g2="null" k="55" />
<hkern g1="null" g2="null" k="55" />
<hkern g1="null" g2="null" k="55" />
<hkern g1="null" g2="null" k="55" />
<hkern g1="null" g2="null" k="55" />
<hkern g1="null" g2="null" k="55" />
<hkern g1="null" g2="null" k="55" />
<hkern g1="null" g2="null" k="-10" />
<hkern g1="null" g2="null" k="-10" />
<hkern g1="null" g2="null" k="-10" />
<hkern g1="null" g2="null" k="-10" />
<hkern g1="null" g2="null" k="55" />
<hkern g1="null" g2="null" k="55" />
<hkern g1="null" g2="null" k="55" />
<hkern g1="null" g2="null" k="55" />
<hkern g1="null" g2="null" k="55" />
<hkern g1="null" g2="null" k="37" />
<hkern g1="null" g2="null" k="37" />
<hkern g1="null" g2="null" k="37" />
<hkern g1="null" g2="null" k="37" />
<hkern g1="null" g2="null" k="18" />
<hkern g1="null" g2="null" k="18" />
<hkern g1="null" g2="null" k="74" />
<hkern g1="null" g2="null" k="28" />
<hkern g1="null" g2="null" k="74" />
<hkern g1="null" g2="null" k="6" />
<hkern g1="null" g2="null" k="18" />
<hkern g1="null" g2="null" k="37" />
<hkern g1="null" g2="null" k="37" />
<hkern g1="null" g2="null" k="18" />
<hkern g1="null" g2="null" k="18" />
<hkern g1="null" g2="null" k="18" />
<hkern g1="null" g2="null" k="18" />
<hkern g1="null" g2="null" k="37" />
<hkern g1="null" g2="null" k="37" />
<hkern g1="null" g2="null" k="37" />
<hkern g1="null" g2="null" k="37" />
<hkern g1="null" g2="null" k="37" />
<hkern g1="null" g2="null" k="37" />
<hkern g1="null" g2="null" k="37" />
<hkern g1="null" g2="null" k="37" />
<hkern g1="null" g2="null" k="37" />
<hkern g1="null" g2="null" k="37" />
<hkern g1="null" g2="null" k="37" />
<hkern g1="null" g2="null" k="37" />
<hkern g1="null" g2="null" k="18" />
<hkern g1="null" g2="null" k="18" />
<hkern g1="null" g2="null" k="18" />
<hkern g1="null" g2="null" k="18" />
<hkern g1="null" g2="null" k="18" />
<hkern g1="null" g2="null" k="18" />
<hkern g1="null" g2="null" k="18" />
<hkern g1="null" g2="null" k="18" />
<hkern g1="null" g2="null" k="18" />
<hkern g1="null" g2="null" k="18" />
<hkern g1="null" g2="null" k="18" />
<hkern g1="null" g2="null" k="18" />
<hkern g1="null" g2="null" k="18" />
<hkern g1="null" g2="null" k="111" />
<hkern g1="null" g2="null" k="111" />
<hkern g1="null" g2="null" k="111" />
<hkern g1="null" g2="null" k="92" />
<hkern g1="null" g2="null" k="92" />
<hkern g1="null" g2="null" k="98" />
<hkern g1="null" g2="null" k="92" />
<hkern g1="null" g2="null" k="92" />
<hkern g1="null" g2="null" k="9" />
<hkern g1="null" g2="null" k="92" />
<hkern g1="null" g2="null" k="74" />
<hkern g1="null" g2="null" k="92" />
<hkern g1="null" g2="null" k="74" />
<hkern g1="null" g2="null" k="55" />
<hkern g1="null" g2="null" k="98" />
<hkern g1="null" g2="null" k="98" />
<hkern g1="null" g2="null" k="98" />
<hkern g1="null" g2="null" k="98" />
<hkern g1="null" g2="null" k="98" />
<hkern g1="null" g2="null" k="98" />
<hkern g1="null" g2="null" k="92" />
<hkern g1="null" g2="null" k="92" />
<hkern g1="null" g2="null" k="92" />
<hkern g1="null" g2="null" k="92" />
<hkern g1="null" g2="null" k="92" />
<hkern g1="null" g2="null" k="92" />
<hkern g1="null" g2="null" k="92" />
<hkern g1="null" g2="null" k="92" />
<hkern g1="null" g2="null" k="92" />
<hkern g1="null" g2="null" k="92" />
<hkern g1="null" g2="null" k="9" />
<hkern g1="null" g2="null" k="9" />
<hkern g1="null" g2="null" k="9" />
<hkern g1="null" g2="null" k="9" />
<hkern g1="null" g2="null" k="92" />
<hkern g1="null" g2="null" k="92" />
<hkern g1="null" g2="null" k="92" />
<hkern g1="null" g2="null" k="92" />
<hkern g1="null" g2="null" k="92" />
<hkern g1="null" g2="null" k="74" />
<hkern g1="null" g2="null" k="74" />
<hkern g1="null" g2="null" k="74" />
<hkern g1="null" g2="null" k="74" />
<hkern g1="null" g2="null" k="18" />
<hkern g1="null" g2="null" k="-18" />
<hkern g1="null" g2="null" k="92" />
<hkern g1="null" g2="null" k="55" />
<hkern g1="null" g2="null" k="92" />
<hkern g1="null" g2="null" k="18" />
<hkern g1="null" g2="null" k="18" />
<hkern g1="null" g2="null" k="18" />
<hkern g1="null" g2="null" k="-18" />
<hkern g1="null" g2="null" k="18" />
<hkern g1="null" g2="null" k="18" />
<hkern g1="null" g2="null" k="18" />
<hkern g1="null" g2="null" k="18" />
<hkern g1="null" g2="null" k="18" />
<hkern g1="null" g2="null" k="18" />
<hkern g1="null" g2="null" k="18" />
<hkern g1="null" g2="null" k="-18" />
<hkern g1="null" g2="null" k="18" />
<hkern g1="null" g2="null" k="18" />
<hkern g1="null" g2="null" k="18" />
<hkern g1="null" g2="null" k="18" />
<hkern g1="null" g2="null" k="18" />
<hkern g1="null" g2="null" k="74" />
<hkern g1="null" g2="null" k="74" />
<hkern g1="null" g2="null" k="55" />
<hkern g1="null" g2="null" k="55" />
<hkern g1="null" g2="null" k="92" />
<hkern g1="null" g2="null" k="92" />
<hkern g1="null" g2="null" k="80" />
<hkern g1="null" g2="null" k="50" />
<hkern g1="null" g2="null" k="37" />
<hkern g1="null" g2="null" k="98" />
<hkern g1="null" g2="null" k="30" />
<hkern g1="null" g2="null" k="18" />
<hkern g1="null" g2="null" k="18" />
<hkern g1="null" g2="null" k="98" />
<hkern g1="null" g2="null" k="18" />
<hkern g1="null" g2="null" k="18" />
<hkern g1="null" g2="null" k="98" />
<hkern g1="null" g2="null" k="74" />
<hkern g1="null" g2="null" k="80" />
<hkern g1="null" g2="null" k="50" />
<hkern g1="null" g2="null" k="37" />
<hkern g1="null" g2="null" k="98" />
<hkern g1="null" g2="null" k="30" />
<hkern g1="null" g2="null" k="18" />
<hkern g1="null" g2="null" k="18" />
<hkern g1="null" g2="null" k="98" />
<hkern g1="null" g2="null" k="18" />
<hkern g1="null" g2="null" k="18" />
<hkern g1="null" g2="null" k="98" />
<hkern g1="null" g2="null" k="74" />
<hkern g1="null" g2="null" k="80" />
<hkern g1="null" g2="null" k="50" />
<hkern g1="null" g2="null" k="37" />
<hkern g1="null" g2="null" k="98" />
<hkern g1="null" g2="null" k="30" />
<hkern g1="null" g2="null" k="18" />
<hkern g1="null" g2="null" k="18" />
<hkern g1="null" g2="null" k="98" />
<hkern g1="null" g2="null" k="18" />
<hkern g1="null" g2="null" k="18" />
<hkern g1="null" g2="null" k="98" />
<hkern g1="null" g2="null" k="74" />
<hkern g1="null" g2="null" k="80" />
<hkern g1="null" g2="null" k="50" />
<hkern g1="null" g2="null" k="37" />
<hkern g1="null" g2="null" k="98" />
<hkern g1="null" g2="null" k="30" />
<hkern g1="null" g2="null" k="18" />
<hkern g1="null" g2="null" k="18" />
<hkern g1="null" g2="null" k="98" />
<hkern g1="null" g2="null" k="18" />
<hkern g1="null" g2="null" k="18" />
<hkern g1="null" g2="null" k="98" />
<hkern g1="null" g2="null" k="74" />
<hkern g1="null" g2="null" k="80" />
<hkern g1="null" g2="null" k="50" />
<hkern g1="null" g2="null" k="37" />
<hkern g1="null" g2="null" k="98" />
<hkern g1="null" g2="null" k="30" />
<hkern g1="null" g2="null" k="18" />
<hkern g1="null" g2="null" k="18" />
<hkern g1="null" g2="null" k="98" />
<hkern g1="null" g2="null" k="18" />
<hkern g1="null" g2="null" k="18" />
<hkern g1="null" g2="null" k="98" />
<hkern g1="null" g2="null" k="74" />
<hkern g1="null" g2="null" k="80" />
<hkern g1="null" g2="null" k="50" />
<hkern g1="null" g2="null" k="37" />
<hkern g1="null" g2="null" k="98" />
<hkern g1="null" g2="null" k="30" />
<hkern g1="null" g2="null" k="18" />
<hkern g1="null" g2="null" k="18" />
<hkern g1="null" g2="null" k="98" />
<hkern g1="null" g2="null" k="18" />
<hkern g1="null" g2="null" k="18" />
<hkern g1="null" g2="null" k="98" />
<hkern g1="null" g2="null" k="74" />
<hkern g1="null" g2="null" k="111" />
<hkern g1="null" g2="null" k="111" />
<hkern g1="null" g2="null" k="111" />
<hkern g1="null" g2="null" k="92" />
<hkern g1="null" g2="null" k="92" />
<hkern g1="null" g2="null" k="98" />
<hkern g1="null" g2="null" k="92" />
<hkern g1="null" g2="null" k="92" />
<hkern g1="null" g2="null" k="9" />
<hkern g1="null" g2="null" k="92" />
<hkern g1="null" g2="null" k="74" />
<hkern g1="null" g2="null" k="92" />
<hkern g1="null" g2="null" k="74" />
<hkern g1="null" g2="null" k="55" />
<hkern g1="null" g2="null" k="98" />
<hkern g1="null" g2="null" k="98" />
<hkern g1="null" g2="null" k="98" />
<hkern g1="null" g2="null" k="98" />
<hkern g1="null" g2="null" k="98" />
<hkern g1="null" g2="null" k="98" />
<hkern g1="null" g2="null" k="92" />
<hkern g1="null" g2="null" k="92" />
<hkern g1="null" g2="null" k="92" />
<hkern g1="null" g2="null" k="92" />
<hkern g1="null" g2="null" k="92" />
<hkern g1="null" g2="null" k="92" />
<hkern g1="null" g2="null" k="92" />
<hkern g1="null" g2="null" k="92" />
<hkern g1="null" g2="null" k="92" />
<hkern g1="null" g2="null" k="92" />
<hkern g1="null" g2="null" k="9" />
<hkern g1="null" g2="null" k="9" />
<hkern g1="null" g2="null" k="9" />
<hkern g1="null" g2="null" k="9" />
<hkern g1="null" g2="null" k="92" />
<hkern g1="null" g2="null" k="92" />
<hkern g1="null" g2="null" k="92" />
<hkern g1="null" g2="null" k="92" />
<hkern g1="null" g2="null" k="92" />
<hkern g1="null" g2="null" k="74" />
<hkern g1="null" g2="null" k="74" />
<hkern g1="null" g2="null" k="74" />
<hkern g1="null" g2="null" k="74" />
<hkern g1="null" g2="null" k="92" />
<hkern g1="null" g2="null" k="92" />
<hkern g1="null" g2="null" k="92" />
<hkern g1="null" g2="null" k="92" />
<hkern g1="null" g2="null" k="111" />
<hkern g1="null" g2="null" k="111" />
<hkern g1="null" g2="null" k="111" />
<hkern g1="null" g2="null" k="92" />
<hkern g1="null" g2="null" k="92" />
<hkern g1="null" g2="null" k="98" />
<hkern g1="null" g2="null" k="92" />
<hkern g1="null" g2="null" k="92" />
<hkern g1="null" g2="null" k="9" />
<hkern g1="null" g2="null" k="92" />
<hkern g1="null" g2="null" k="74" />
<hkern g1="null" g2="null" k="92" />
<hkern g1="null" g2="null" k="74" />
<hkern g1="null" g2="null" k="55" />
<hkern g1="null" g2="null" k="98" />
<hkern g1="null" g2="null" k="98" />
<hkern g1="null" g2="null" k="98" />
<hkern g1="null" g2="null" k="98" />
<hkern g1="null" g2="null" k="98" />
<hkern g1="null" g2="null" k="98" />
<hkern g1="null" g2="null" k="92" />
<hkern g1="null" g2="null" k="92" />
<hkern g1="null" g2="null" k="92" />
<hkern g1="null" g2="null" k="92" />
<hkern g1="null" g2="null" k="92" />
<hkern g1="null" g2="null" k="92" />
<hkern g1="null" g2="null" k="92" />
<hkern g1="null" g2="null" k="92" />
<hkern g1="null" g2="null" k="92" />
<hkern g1="null" g2="null" k="92" />
<hkern g1="null" g2="null" k="9" />
<hkern g1="null" g2="null" k="9" />
<hkern g1="null" g2="null" k="9" />
<hkern g1="null" g2="null" k="9" />
<hkern g1="null" g2="null" k="92" />
<hkern g1="null" g2="null" k="92" />
<hkern g1="null" g2="null" k="92" />
<hkern g1="null" g2="null" k="92" />
<hkern g1="null" g2="null" k="92" />
<hkern g1="null" g2="null" k="74" />
<hkern g1="null" g2="null" k="74" />
<hkern g1="null" g2="null" k="74" />
<hkern g1="null" g2="null" k="74" />
<hkern g1="null" g2="null" k="69" />
<hkern g1="null" g2="null" k="74" />
<hkern g1="null" g2="null" k="18" />
<hkern g1="null" g2="null" k="74" />
<hkern g1="null" g2="null" k="69" />
</font>
</defs>
</svg>
